<?xml version="1.0"?>
<svg xmlns="http://www.w3.org/2000/svg" xmlns:xlink="http://www.w3.org/1999/xlink" version="1.1" id="Capa_1" x="0px" y="0px" viewBox="0 0 512 512" style="enable-background:new 0 0 512 512;" xml:space="preserve" width="512px" height="512px" class=""><g><g>
	<g>
		<path d="M320,96H192c-8.832,0-16,7.168-16,16c0,8.832,7.168,16,16,16h128c8.832,0,16-7.168,16-16C336,103.168,328.832,96,320,96z" data-original="#000000" class="active-path" data-old_color="#000000" fill="#70B247"/>
	</g>
</g><g>
	<g>
		<path d="M430.24,332.288L333.344,160H178.656L81.76,332.288C70.144,352.896,64,376.352,64,400c0,61.76,50.24,112,112,112h160    c61.76,0,112-50.24,112-112C448,376.352,441.888,352.896,430.24,332.288z M256,320c26.464,0,48,21.536,48,48    c0,20.832-13.408,38.432-32,45.056V432c0,8.832-7.168,16-16,16c-8.832,0-16-7.168-16-16v-16h-16c-8.832,0-16-7.168-16-16    c0-8.832,7.168-16,16-16h32c8.8,0,16-7.168,16-16c0-8.832-7.2-16-16-16c-26.464,0-48-21.536-48-48    c0-20.832,13.408-38.432,32-45.056V240c0-8.832,7.168-16,16-16c8.832,0,16,7.168,16,16v16h16c8.832,0,16,7.168,16,16    c0,8.832-7.168,16-16,16h-32c-8.8,0-16,7.168-16,16C240,312.832,247.2,320,256,320z" data-original="#000000" class="active-path" data-old_color="#000000" fill="#70B247"/>
	</g>
</g><g>
	<g>
		<path d="M366.08,8.448C363.328,3.264,357.92,0,352,0H160c-5.92,0-11.328,3.264-14.112,8.448s-2.464,11.52,0.8,16.416L172.768,64    h166.464l26.08-39.136C368.608,19.968,368.896,13.632,366.08,8.448z" data-original="#000000" class="active-path" data-old_color="#000000" fill="#70B247"/>
	</g>
</g></g> </svg>
